%YAML 1.1
%TAG !u! tag:unity3d.com,2011:
--- !u!1045 &1
EditorBuildSettings:
  m_ObjectHideFlags: 0
  serializedVersion: 2
  m_Scenes:
  - enabled: 1
    path: Assets/SevenSlots/Scenes/AnimalWorldSlotsLoading.unity
    guid: 4d406180047d7f34a957922bff987477
  - enabled: 1
    path: Assets/SevenSlots/Scenes/AnimalWorldSlots.unity
    guid: 2c31495cb49ad3a4f97b34ff7ec56fdb
  m_configObjects: {}
