%YAML 1.1
%TAG !u! tag:unity3d.com,2011:
--- !u!114 &11400000
MonoBehaviour:
  m_ObjectHideFlags: 0
  m_CorrespondingSourceObject: {fileID: 0}
  m_PrefabInstance: {fileID: 0}
  m_PrefabAsset: {fileID: 0}
  m_GameObject: {fileID: 0}
  m_Enabled: 1
  m_EditorHideFlags: 0
  m_Script: {fileID: 11500000, guid: 97841064e27c442f3b45f0e2079b716c, type: 3}
  m_Name: 9Elephant
  m_EditorClassIdentifier: 
  type: 11
  particle: {fileID: 1978309707650864, guid: 0d5b2acf0cd20417c80c6715503f101f, type: 3}
  animationData:
    frames:
    - {fileID: 21300000, guid: 62622a38b9f7f504893d1f0f41f52874, type: 3}
    - {fileID: 21300000, guid: 63a76b668c9c57a4bb357d0a83ddc1b7, type: 3}
    - {fileID: 21300000, guid: 69c7c89e5c303234db29390567c04210, type: 3}
    - {fileID: 21300000, guid: 40bfb3e626c84854295847daa713b595, type: 3}
    - {fileID: 21300000, guid: 066efac8c6e24d643b955c110e4018c4, type: 3}
    - {fileID: 21300000, guid: ff8b2f27bb98e4a4686d080691439b76, type: 3}
    - {fileID: 21300000, guid: cd4663660eaab294fa867da37f28f8b8, type: 3}
    - {fileID: 21300000, guid: 309ac50f7b217c6439ca3417c6420173, type: 3}
    - {fileID: 21300000, guid: dad37390528484f418b9fc194e6fc5b2, type: 3}
    - {fileID: 21300000, guid: 0088e054a80421742b88ed998e2d24c9, type: 3}
    - {fileID: 21300000, guid: df04e3f7d65295846af738da5af0140d, type: 3}
    - {fileID: 21300000, guid: 5db3570fde33a8e4d8e4d2f7ab192a5f, type: 3}
    - {fileID: 21300000, guid: e35a5976751bab643b8cd53ce34b0fa3, type: 3}
    - {fileID: 21300000, guid: dee9286cc59d2ae499eb38ab79ecca93, type: 3}
    - {fileID: 21300000, guid: 50594d93e8911ef49b252a15241316cc, type: 3}
    - {fileID: 21300000, guid: d032470cb6a906b44ade88fd7e04851e, type: 3}
    - {fileID: 21300000, guid: 4a6afca327a0f5c4f98528d78afc888e, type: 3}
    - {fileID: 21300000, guid: b09d1b121367bac4991a9ba482299a6c, type: 3}
    - {fileID: 21300000, guid: ada4122b96f7793408b4c3d7b5e9baca, type: 3}
    - {fileID: 21300000, guid: c92df26b2a3b395489dab809fd8a631d, type: 3}
    - {fileID: 21300000, guid: 10bdf40b3963d714b8837b4ffb542b07, type: 3}
    - {fileID: 21300000, guid: bdf3e9743f65922409b7a3de0097675b, type: 3}
    - {fileID: 21300000, guid: 1c31c00918d632240a0859f9059dc93b, type: 3}
    - {fileID: 21300000, guid: f01167fd4885ee34f86d2558799b2008, type: 3}
    - {fileID: 21300000, guid: d6d4d1cab5f79c44c8a140b65a546619, type: 3}
    - {fileID: 21300000, guid: ff4391bcc32a2af489d063a955d45b01, type: 3}
    - {fileID: 21300000, guid: 5fe8e5f9cc8973945894a6adf524cf17, type: 3}
    - {fileID: 21300000, guid: 762b0120d42ddbd43b98a9b772005523, type: 3}
    - {fileID: 21300000, guid: 386c117d601e49941920bcf446ddba91, type: 3}
    - {fileID: 21300000, guid: b2e64c54d216d1140b528242f8e8eaee, type: 3}
    - {fileID: 21300000, guid: e36ee1ba0d2e5fd43b4a16b9500d1326, type: 3}
    - {fileID: 21300000, guid: b03f9167f7eef49459ef159acc7a4311, type: 3}
    - {fileID: 21300000, guid: 5d3b63b1304c4b24a8381fe147948b1a, type: 3}
    - {fileID: 21300000, guid: d0ab5634e2887a7438fa065415f351d3, type: 3}
    - {fileID: 21300000, guid: 0219acc08fee0ba46b5b9c58a18d1904, type: 3}
    - {fileID: 21300000, guid: 1f42bf690f9ad274382a5704bbaa7bf7, type: 3}
    - {fileID: 21300000, guid: 03b81cd4b42e03648904ebe12715e667, type: 3}
    - {fileID: 21300000, guid: e63cbf63b3742174092ab2807eb0064a, type: 3}
    - {fileID: 21300000, guid: 775071228b173a84d824d1fc4ae7c4d6, type: 3}
    - {fileID: 21300000, guid: 09deb84df45982e44b83a37f2947a4d5, type: 3}
    - {fileID: 21300000, guid: d30a46fa388d5074ba27b8ca07078176, type: 3}
    - {fileID: 21300000, guid: 0bb53766b70041345b28d52b956a84d2, type: 3}
    - {fileID: 21300000, guid: 1b3949396739bc8458b947b8d4f12580, type: 3}
    - {fileID: 21300000, guid: 95c5cb7292b69c149931e26130a16b69, type: 3}
    duration: 1
    delay: 0
  sprite: {fileID: 21300000, guid: 62622a38b9f7f504893d1f0f41f52874, type: 3}
  rule:
    reward:
    - 0
    - 12
    - 50
    - 350
    - 2500
    substitutesForWild: 1
